Asset Complete,Character Dev IDs,Avatar,Name,Gender,Bio,Notes,Weirdness,Dev Variable,Morality,Romance,Quirk 1,Quirk 2,Quirk 3,Quirk 4,Quirk 5,Quirk 6
FALSE,UberDude ,,UberDude ,M,"Ehrlich gesagt kenne ich keine andere Sprache. Wenn Sie die Sprachbarriere überwinden können, zeige ich Ihnen eine Uber-Zeit mit meinen Uber-Kräften.","Translated bio: To be honest, I don't actually know any other language. If you can work past the language barrier, I'll show you an uber time with my uber powers.",8 Normal,,10 Good,5 Romantic,x,x,x,x,x,x
TRUE,TheImpossibleDave ,impossibledave.png,The Impossible Dave ,M,I'm just your average joe.,Regular guy,10 Normal,,1 Good,1 Hedonist,x,x,x,x,x,x
TRUE,Lobsterboy,lobsterboy.png,Lobster boy,M,"The name's boy. Lobster boy. But my friends call my Lobby. On the outside I may be a bit weird and wild, but can't a lobster also find true love?",Mr. Krabs-esque appearance,8 Weird,,5 Good,10 Romantic,x,x,x,x,x,x
TRUE,CaptainLuton,,Captain Luton,F,"Every time I introduce myself to somebody they always look at me like I'm crazy. Well no more, I'm here to rep Luton, & maybe have a good time along the way ;)",,5 Weird,,5 Villain,5 Hedonist,x,x,x,x,x,x
FALSE,DrHippopotamus,,Dr. Hippopotamus,F,"Do you think I like looking like this? Of course not. I'm just out here making the best out of the hand I've been dealt. If you respect that, I'll respect you.",Swapped 8 romantic with 5 romantic (with Ms. Mystic),5 Weird,,5 Villain,5 Romantic,x,x,x,x,x,x
TRUE,MsMystic ,msmystic.png,Ms. Mystic ,F,I chose the wrong path in life. Please don't tell the other sisters that I'm on here - I just can't stop dreaming about eloping… will you be the one to join me?,"Warning: The ellipsis (…) is a single character, when the 3 dots are typed out this exceeds the character limit.",5 Weird,,5 Good,8 Romantic,x,x,x,x,x,x
FALSE,DamianHardgraves,,Damian Hardgraves,M,A King of all trades. An entrepreneur & estate agent. Into digital currencies & NFT's. <3 the environment. Why not exchange more than just our business cards?,Very full of himself and egotistical.,1 Normal,,8 Villain,10 Hedonist,x,x,x,x,x,x
TRUE,PosionViolet,poisonviolet.png,Posion Violet,F,"Lady in the streets, freak in the sheets. Actually, no, I think most people think I'm a freak regardless. But that won't stop me from trying!",,8 Weird,,8 Villain,5 Romantic,x,x,x,x,x,x
TRUE,MagnetMan,magnetman.png,Magnet Man,M,"I'm no ordinary guy - I'm a magnet. A... chick magnet. If you feel any... attraction to me, I'll be sure to show you my... positive side.",Cannot stop making bad puns.,1 Weird,,8 Good,8 Hedonist,x,x,x,x,x,x
TRUE,IceCream,icecream.png,Ice Cream,F,Why does everyone always assume I'm just some sweet gal? I'm sick and tired of it. I'll make everyone on this cursed app pay.,Alien ice cream who is extremely evil.,10 Weird,20 Weirdness,10 Villain,1 Romantic,x,x,x,x,x,x
TRUE,WonderfulWoman,,Wonderful Woman,F,"Fighting crime occasionally gets a little bit lonely…If your ideals are as heroic as mine, & you're looking to settle down, maybe we could go for a test flight?","Warning: The ellipsis (…) is a single character, when the 3 dots are typed out this exceeds the character limit.",5 Normal,,8 Good,8 Romantic,x,x,x,x,x,x
TRUE,BuffBarry,buffbarry.png,Buff Barry,M,25 Years Young | Dog lover | Protein = My Life | Gym = My World | Can beat anyone in an arm wrestle,Swapped 5 hedonist for 5 romantic (with Seagull Girl).,8 Normal,,5 Good,5 Hedonist,x,x,x,x,x,x
TRUE,MicroMan,microman.png,Micro Man,M,If another person calls me short I am going to lose it. It's clearly the photographer's fault for setting the tripod so high! I'm sick of being put up to society's arbitrary standards.,"Too short to fit totally on picture | Old bio: Short and sweet, that's me! If you like taking life one step at a time, I'm your guy. You know what they say - big things come in small packages!",5 Weird,,5 Villain,8 Hedonist,x,x,x,x,x,x
TRUE,Sharon,,Sharon,F,"48. Divorced. 3 kids. Cat mum. Librarian. Anti-vaxxer. Flat earther. Alcholic. Gun owner. If you can't handle me at my worst, you don't deserve me at my best.",Crappy librarian. But the bio sort of strays away from that and focuses more on the Karen aspect. Make things mentioned in bio known traits?,5 Normal,,1 Villain,5 Hedonist,x,x,x,x,x,x
TRUE,Seagal,,Seagal,F,"I'm sick of the flinch in people's eyes when I say I'm a sidekick. Saving people is great, but I want to be independent - to have people love me for who *I* am.",Sidekick who wants independence,5 Normal,,5 Good,5 Romantic,x,x,x,x,x,x
TRUE,H8CK3RM4N.2000,hackerman.png,H8CK3RM4N.2000,M,i@m the gratest hacker known 2 man!!1 u kno what my shirt is made out of? boyfriend material ;),,5 Normal,,5 Villain,5 Hedonist,x,x,x,x,x,x
,,,,,,,,,,,,,,,,
,,,MVP  Slate of characters ^,,Green = final | Orange = pending discussion w/ others,,,,,,,,,,,
FALSE,,,,,,,,,,,,,,,,
FALSE,,,,,,,,,,,,,,,,
FALSE,,,,,,,,,,,,,,,,
FALSE,,,,,,,,,,,,,,,,
FALSE,,,,,,,,,,,,,,,,
FALSE,,,,,,,,,,,,,,,,
FALSE,,,,,,,,,,,,,,,,
FALSE,,,,,,,,,,,,,,,,
FALSE,,,,,,,,,,,,,,,,
FALSE,,,,,,,,,,,,,,,,
FALSE,,,,,,,,,,,,,,,,